.........................
----------------------------------------------------------------------
Ran 25 tests in 0.016s

OK
Name               Stmts   Miss Branch BrPart  Cover   Missing
--------------------------------------------------------------
Diplomacy.py          68      0     42      0   100%
TestDiplomacy.py     104      0      2      1    99%   205->exit
--------------------------------------------------------------
TOTAL                172      0     44      1    99%