Name               Stmts   Miss Branch BrPart  Cover   Missing
--------------------------------------------------------------
Diplomacy.py          64      0     42      0   100%
TestDiplomacy.py      21      0      0      0   100%
--------------------------------------------------------------
TOTAL                 85      0     42      0   100%
